ProjectR
…
View(cheeses)
milktps <- distinct(cheeses, milk)
print(milktps)

## # A tibble: 22 × 1
##    milk              
##    <chr>             
##  1 cow               
##  2 sheep             
##  3 goat              
##  4 buffalo, cow      
##  5 cow, goat, sheep  
##  6 <NA>              
##  7 goat, sheep       
##  8 cow, water buffalo
##  9 cow, goat         
## 10 cow, sheep        
## # ℹ 12 more rows
…
